{
  "count": 12948,
  "next": "http://localhost:8000/api/v1/titles/?actor=&actor_contains=&company=&company_contains=&country=&country_contains=&director=&director_contains=&format=json&genre=Action&genre_contains=&imdb_score=&imdb_score_max=&imdb_score_min=&lang=&lang_contains=&max_year=&min_year=&page=2&rating=&rating_contains=&sort_by=&title=&title_contains=&writer=&writer_contains=&year=",
  "previous": null,
  "results": [
    {
      "id": 4465,
      "url": "http://localhost:8000/api/v1/titles/4465?format=json",
      "imdb_url": "https://www.imdb.com/title/tt0004465/",
      "title": "The Perils of Pauline",
      "year": 1914,
      "imdb_score": "6.3",
      "votes": 940,
      "image_url": "https://m.media-amazon.com/images/M/MV5BMzgxODk1Mzk2Ml5BMl5BanBnXkFtZTgwMDg0NzkwMjE@._V1_UY268_CR1,0,182,268_AL_.jpg",
      "directors": [
        "Donald MacKenzie",
        "Louis J. Gasnier"
      ],
      "actors": [
        "Clifford Bruce",
        "Crane Wilbur",
        "Donald MacKenzie",
        "Edward José",
        "Eleanor Woodruff",
        "Francis Carlyle",
        "Jack Standing",
        "Joe Cuny",
        "Leroy Baker",
        "Louis J. Gasnier",
        "Louise Du Pre",
        "Oscar Nye",
        "Paul Panzer",
        "Pearl White",
        "Sam J. Ryan"
      ],
      "writers": [
        "Basil Dickey",
        "Charles W. Goddard"
      ],
      "genres": [
        "Action",
        "Adventure",
        "Drama"
      ]
    },
    {
      "id": 4635,
      "url": "http://localhost:8000/api/v1/titles/4635?format=json",
      "imdb_url": "https://www.imdb.com/title/tt0004635/",
      "title": "The Squaw Man",
      "year": 1914,
      "imdb_score": "5.7",
      "votes": 885,
      "image_url": "https://m.media-amazon.com/images/M/MV5BMjMwODQwODI3Nl5BMl5BanBnXkFtZTgwMDA1ODI3MzE@._V1_UY268_CR4,0,182,268_AL_.jpg",
      "directors": [
        "Cecil B. DeMille",
        "Oscar Apfel"
      ],
      "actors": [
        "'Baby' Carmen De Rue",
        "Dustin Farnum",
        "Eugene De Rue",
        "Fernando Gálvez",
        "Foster Knox",
        "Fred Montague",
        "H.L. Swisher",
        "H.R. Macy",
        "Haidee Fuller",
        "Michael J. Kilpatrick",
        "Monroe Salisbury",
        "Mrs. A.W. Filson",
        "Red Wing",
        "Sydney Deane",
        "Winifred Kingston"
      ],
      "writers": [
        "Cecil B. DeMille",
        "Edwin Milton Royle"
      ],
      "genres": [
        "Action",
        "Drama",
        "Romance"
      ]
    },
    {
      "id": 6206,
      "url": "http://localhost:8000/api/v1/titles/6206?format=json",
      "imdb_url": "https://www.imdb.com/title/tt0006206/",
      "title": "I vampiri",
      "year": 1915,
      "imdb_score": "7.3",
      "votes": 4225,
      "image_url": "https://m.media-amazon.com/images/M/MV5BMTc1NTY3NDIzNl5BMl5BanBnXkFtZTgwNTIyODg5MTE@._V1_UY268_CR5,0,182,268_AL_.jpg",
      "directors": [
        "Louis Feuillade"
      ],
      "actors": [
        "Fernand Herrmann",
        "Fridolin",
        "Georgette Faraboni",
        "Jacques Feyder",
        "Jean Aymé",
        "Louise Lagrange",
        "Marcel Lévesque",
        "Musidora",
        "Renée Carl",
        "Rita Herlor",
        "Stacia Napierkowska",
        "Suzanne Delvé",
        "Suzanne Le Bret",
        "Édouard Mathé",
        "Émile Keppens"
      ],
      "writers": [
        "Louis Feuillade"
      ],
      "genres": [
        "Action",
        "Adventure",
        "Crime"
      ]
    },
    {
      "id": 6333,
      "url": "http://localhost:8000/api/v1/titles/6333?format=json",
      "imdb_url": "https://www.imdb.com/title/tt0006333/",
      "title": "20,000 Leagues Under the Sea",
      "year": 1916,
      "imdb_score": "6.2",
      "votes": 1526,
      "image_url": "https://m.media-amazon.com/images/M/MV5BMTQ0OTk3MTIzNV5BMl5BanBnXkFtZTgwNDA5MjAwMzE@._V1_UX182_CR0,0,182,268_AL_.jpg",
      "directors": [
        "Stuart Paton"
      ],
      "actors": [
        "Allen Holubar",
        "Curtis Benton",
        "Dan Hanlon",
        "Edna Pendleton",
        "Howard Crampton",
        "Jane Gail",
        "Lois Alexander",
        "Matt Moore",
        "Wallis Clark",
        "William Welsh"
      ],
      "writers": [
        "Jules Verne"
      ],
      "genres": [
        "Action",
        "Adventure",
        "Sci-Fi"
      ]
    },
    {
      "id": 7257,
      "url": "http://localhost:8000/api/v1/titles/7257?format=json",
      "imdb_url": "https://www.imdb.com/title/tt0007257/",
      "title": "Reggie Mixes In",
      "year": 1916,
      "imdb_score": "4.8",
      "votes": 567,
      "image_url": "https://m.media-amazon.com/images/M/MV5BMjYyMDgxYmUtZmZlMC00OWI1LWI1MWYtMjk2NmQyMjBkMjc5XkEyXkFqcGdeQXVyMDUyOTUyNQ@@._V1_UY268_CR1,0,182,268_AL_.jpg",
      "directors": [
        "Christy Cabanne"
      ],
      "actors": [
        "Alberta Lee",
        "Allan Sears",
        "Alma Rubens",
        "Bessie Love",
        "Douglas Fairbanks",
        "Frank Bennett",
        "Joseph Singleton",
        "Lillian Langdon",
        "Tom Wilson",
        "Wilbur Higby",
        "William Lowery"
      ],
      "writers": [
        "Robert M. Baker",
        "Roy Somerville"
      ],
      "genres": [
        "Action",
        "Comedy",
        "Drama"
      ]
    }
  ]
}